[{
        "id": 0,
        "titulo": "Aprender ReactJS",
        "descripcion": "Ver vídeos y la web oficial en español",
        "done": true
    }, {
        "id": 1,
        "titulo": "Practicar Angular",
        "descripcion": "Material Angular y RxJS",
        "done": true
    }, {
        "id": 2,
        "titulo": "Montar Alarmas LVS",
        "descripcion": "Poner todo lo repasado en la web del proyecto",
        "done": false
    }, {
        "id": 3,
        "titulo": "Alarmas LVS en ReactJS",
        "descripcion": "Montar el proyecto de Alarmas LVS con ReactJS",
        "done": false
    }
]